State_and_indiv
…
count_state <- breaches %>%
  mutate(State = State %>% fct_infreq() %>% fct_rev()) %>%
  count(State)

count_state

## # A tibble: 52 x 2
##    State     n
##  * <fct> <int>
##  1 VT        1
##  2 ME        1
##  3 SD        1
##  4 HI        1
##  5 ID        2
##  6 ND        3
##  7 DE        3
##  8 MT        4
##  9 NH        4
## 10 WY        4
## # ... with 42 more rows
…
There were no negative state breaches and no values that were unexpectadly high or low. This is seen in the bar graph. More exploration has to be done to determine if any values should be removed.

- Describe and demonstrate how you determine if they are outliers.

An outlier is 1.5 times the interquartile range away from either the lower or upper quartile. In order to determine if any of the state count values are outliers the interquartile range, first quartile, and third quartile need to be calculated. The State count data then has to be filtered for values that are less than the first quartile minus the IQR times 1.5 and values that are greater than the third quartile plus the IQR times 1.5. The outliers can be seen in the outlier list data frame, it includes, TX, CA, FL.

state_count <- breaches %>%
  group_by(State) %>%
  count()
state_count

## # A tibble: 52 x 2
## # Groups:   State [52]
##    State     n
##    <fct> <int>
##  1 TX       83
##  2 MO       25
##  3 AK        5
##  4 DC        9
##  5 CA      113
##  6 PA       40
##  7 TN       32
##  8 NY       58
##  9 NC       32
## 10 MI       26
## # ... with 42 more rows
…
## [1] 5941

firstQ <- quantile(breaches$Individuals_Affected, 0.25, na.rm = TRUE)
firstQ <- firstQ[[1]]

thirdQ <- quantile(breaches$Individuals_Affected, 0.75, na.rm = TRUE)
thirdQ <- thirdQ[[1]]

outlier_list <- breaches %>%
  filter(Individuals_Affected < (firstQ - innerQ * 1.5) | 
        Individuals_Affected > (thirdQ + innerQ * 1.5))

outlier_list

## # A tibble: 129 x 19
##       X1 Number Name_of_Covered_Enti~ State Business_Associate~ Individuals_Aff~
##    <dbl>  <dbl> <chr>                 <fct> <chr>                          <int>
##  1    13     12 "Universal American"  NY    Democracy Data & C~            83000
##  2    50     49 "Ernest T. Bice, Jr.~ TX    <NA>                           21000
##  3    59     58 "Providence Hospital" MI    <NA>                           83945
##  4    64     63 "Affinity Health Pla~ NY    <NA>                          344579
##  5    66     65 "Praxair Healthcare ~ CT    <NA>                           54165
##  6    70     69 "St. Joseph Heritage~ CA    <NA>                           22012
##  7    76     75 "Emergency Healthcar~ IL    Millennium Medical~           180111
##  8    81     80 "Silicon Valley Eyec~ CA    <NA>                           40000
##  9    91     90 "Cincinnati Children~ OH    <NA>                           60998
## 10    93     92 "AvMed, Inc."         FL    <NA>                         1220000
## # ... with 119 more rows, and 13 more variables: Date_of_Breach <chr>,
## #   Type_of_Breach <chr>, Location_of_Breached_Information <chr>,
## #   Date_Posted_or_Updated <date>, Summary <chr>, breach_start <date>,
## #   breach_end <date>, year <dbl>, northeast <lgl>, westcoast <lgl>,
## #   midwest <lgl>, south <lgl>, region <fct>
…
